Évaluation des fonctions en R – Fonctions et programmation fonctionnelle
…
$skin_color
# A tibble: 31 × 3
   skin_color              n   pct
   <chr>               <int> <dbl>
 1 blue                    2   2.3
 2 blue, grey              2   2.3
 3 brown                   4   4.6
 4 brown mottle            1   1.1
 5 brown, white            1   1.1
 6 dark                    6   6.9
 7 fair                   17  19.5
 8 fair, green, yellow     1   1.1
 9 gold                    1   1.1
10 green                   6   6.9
# ℹ 21 more rows
…
$skin_color
# A tibble: 31 × 3
   skin_color              n   pct
   <chr>               <int> <dbl>
 1 blue                    2   2.3
 2 blue, grey              2   2.3
 3 brown                   4   4.6
 4 brown mottle            1   1.1
 5 brown, white            1   1.1
 6 dark                    6   6.9
 7 fair                   17  19.5
 8 fair, green, yellow     1   1.1
 9 gold                    1   1.1
10 green                   6   6.9
# ℹ 21 more rows
